<?xml version="1.0"?>
<VTKFile type="UnstructuredGrid" version="0.1" byte_order="LittleEndian" header_type="UInt32" compressor="vtkZLibDataCompressor">
  <UnstructuredGrid>
    <Piece NumberOfPoints="5" NumberOfCells="6">
      <PointData>
      </PointData>
      <CellData>
        <DataArray type="Float64" Name="Reference" format="binary" RangeMin="1" RangeMax="1">
          AQAAAACAAAAwAAAAEAAAAA==eJxjYACBD/YMRNIAmvIHGw==
        </DataArray>
      </CellData>
      <Points>
        <DataArray type="Float32" Name="Points" NumberOfComponents="3" format="binary" RangeMin="0" RangeMax="1.4142135623730951">
          AQAAAACAAAA8AAAAFQAAAA==eJxjYEAGDfaobHQ+GNjDMABicQO6
          <InformationKey name="L2_NORM_RANGE" location="vtkDataArray" length="2">
            <Value index="0">
              0
            </Value>
            <Value index="1">
              1.4142135624
            </Value>
          </InformationKey>
        </DataArray>
      </Points>
      <Cells>
        <DataArray type="Int64" Name="connectivity" format="binary" RangeMin="0" RangeMax="4">
          AQAAAACAAACoAAAAKgAAAA==eJxjYIAARijNgsZnQhOH8ZnRxBnQ+Mxo4jA+TD8jmjy6fejmAwAPeAAt
        </DataArray>
        <DataArray type="Int64" Name="offsets" format="binary" RangeMin="3" RangeMax="21">
          AQAAAACAAAAwAAAAGAAAAA==eJxjZoAANijNCaV5oLQAlBaF0gAFmABE
        </DataArray>
        <DataArray type="UInt8" Name="types" format="binary" RangeMin="5" RangeMax="14">
          AQAAAACAAAAGAAAADgAAAA==eJxjZWVl5eQDAACAACw=
        </DataArray>
      </Cells>
    </Piece>
  </UnstructuredGrid>
</VTKFile>
