<?xml version="1.0"?>
<VTKFile type="UnstructuredGrid" version="0.1" byte_order="LittleEndian" header_type="UInt32" compressor="vtkZLibDataCompressor">
  <UnstructuredGrid>
    <Piece NumberOfPoints="25" NumberOfCells="1">
      <PointData>
      </PointData>
      <CellData>
        <DataArray type="Float64" Name="Reference" format="binary" RangeMin="1" RangeMax="1">
          AQAAAACAAAAIAAAADQAAAA==eJxjYACBD/YAAicBMA==
        </DataArray>
      </CellData>
      <Points>
        <DataArray type="Float32" Name="Points" NumberOfComponents="3" format="binary" RangeMin="0" RangeMax="5.656854249492381">
          AQAAAACAAAAsAQAAUgAAAA==eJxdzNERwCAIA9Ds5HePjOZd17M79SrSRP3hgQHAX+fus581njGuNaTM363d327IoExWfv3NRu5Rzns0w5z3s5bJ3aQyZRwZ2NzzPk+/45EouQ==
          <InformationKey name="L2_NORM_RANGE" location="vtkDataArray" length="2">
            <Value index="0">
              0
            </Value>
            <Value index="1">
              5.6568542495
            </Value>
          </InformationKey>
        </DataArray>
      </Points>
      <Cells>
        <DataArray type="Int64" Name="connectivity" format="binary" RangeMin="0" RangeMax="24">
          AQAAAACAAADIAAAANwAAAA==eJwtxUcCQDAAALCapWZR/P+lDpJLQvhVrt24defe0YNHz56cvHn14t2Xsx+/Lj59+/AHU6gBLQ==
        </DataArray>
        <DataArray type="Int64" Name="offsets" format="binary" RangeMin="25" RangeMax="25">
          AQAAAACAAAAIAAAACwAAAA==eJyTZIAAAADQABo=
        </DataArray>
        <DataArray type="UInt8" Name="types" format="binary" RangeMin="70" RangeMax="70">
          AQAAAACAAAABAAAACQAAAA==eJxzAwAARwBH
        </DataArray>
      </Cells>
    </Piece>
  </UnstructuredGrid>
</VTKFile>
