<?xml version="1.0"?>
<VTKFile type="UnstructuredGrid" version="0.1" byte_order="LittleEndian" header_type="UInt32" compressor="vtkZLibDataCompressor">
  <UnstructuredGrid>
    <Piece NumberOfPoints="16" NumberOfCells="1">
      <PointData>
      </PointData>
      <CellData>
        <DataArray type="Float64" Name="Reference" format="binary" RangeMin="1" RangeMax="1">
          AQAAAACAAAAIAAAADQAAAA==eJxjYACBD/YAAicBMA==
        </DataArray>
      </CellData>
      <Points>
        <DataArray type="Float32" Name="Points" NumberOfComponents="3" format="binary" RangeMin="0" RangeMax="1.4142135623730951">
          AQAAAACAAADAAAAASgAAAA==eJxjYEAGDfaobHQ+A8Phryvszp45sxfC1rCHsc+e6bEHySHYGvYINT1IeiFskD6YGggbohdojx0Eg4CDPSrbwR6hBsIGAEa6MP0=
          <InformationKey name="L2_NORM_RANGE" location="vtkDataArray" length="2">
            <Value index="0">
              0
            </Value>
            <Value index="1">
              1.4142135624
            </Value>
          </InformationKey>
        </DataArray>
      </Points>
      <Cells>
        <DataArray type="Int64" Name="connectivity" format="binary" RangeMin="0" RangeMax="15">
          AQAAAACAAACAAAAAKgAAAA==eJwtxTkCwBAAADClbuX/v+0gWRLC9Tg6+XV2cXV38/Tw8ufj7R8V2AB5
        </DataArray>
        <DataArray type="Int64" Name="offsets" format="binary" RangeMin="16" RangeMax="16">
          AQAAAACAAAAIAAAACwAAAA==eJwTYIAAAACIABE=
        </DataArray>
        <DataArray type="UInt8" Name="types" format="binary" RangeMin="70" RangeMax="70">
          AQAAAACAAAABAAAACQAAAA==eJxzAwAARwBH
        </DataArray>
      </Cells>
    </Piece>
  </UnstructuredGrid>
</VTKFile>
