<?xml version="1.0"?>
<VTKFile type="UnstructuredGrid" version="0.1" byte_order="LittleEndian" header_type="UInt32" compressor="vtkZLibDataCompressor">
  <UnstructuredGrid>
    <Piece NumberOfPoints="35" NumberOfCells="5">
      <PointData>
      </PointData>
      <CellData>
        <DataArray type="Float64" Name="Reference" format="binary" RangeMin="1" RangeMax="1">
          AQAAAACAAAAoAAAAEAAAAA==eJxjYACBD/YMBGgAaXMF7A==
        </DataArray>
      </CellData>
      <Points>
        <DataArray type="Float32" Name="Points" NumberOfComponents="3" format="binary" RangeMin="0" RangeMax="4">
          AQAAAACAAACkAQAAgQAAAA==eJyFj+sNgCAMhDEm7uAc/lZuAOdgDtbAXXQC2EkbLD2NiU0IXx/Xh3NsEe7Xj16o5LxcH4zx4uipBpVFi5vFmB1x0+pcT0vQTjIHoBpYjWo0D4rVnUynuei3lA7VV659lb9irAthaL3kTVP/8LfUyZ27zRhbj5LX2e4wzQnD6lJX
          <InformationKey name="L2_NORM_RANGE" location="vtkDataArray" length="2">
            <Value index="0">
              0
            </Value>
            <Value index="1">
              4
            </Value>
          </InformationKey>
        </DataArray>
      </Points>
      <Cells>
        <DataArray type="Int64" Name="connectivity" format="binary" RangeMin="0" RangeMax="34">
          AQAAAACAAAD4AgAAlgAAAA==eJyV0jkSwkAMRFGbfd9tdjDc/5AE/J901QRW8qJRl6Spq38NcIhTnOEcj3jCBg+4xx0+8ImvyDHXsp/9zVvgEle4xg1u8YNv7CLXquOdfew7wjFO0Pmc1/nveMVb5FjObT/7m+d8zuv83sG7eKcztniJPPPzzqX5Svfve4fSnkr/KPfmPvP/+K86zHvnHtzPF39SCQVy
        </DataArray>
        <DataArray type="Int64" Name="offsets" format="binary" RangeMin="15" RangeMax="95">
          AQAAAACAAAAoAAAAFgAAAA==eJzjZ4AAOSitC6VtoHQ8lAYAETAA9g==
        </DataArray>
        <DataArray type="UInt8" Name="types" format="binary" RangeMin="69" RangeMax="71">
          AQAAAACAAAAFAAAADQAAAA==eJxzdXV1dQcABBIBXA==
        </DataArray>
      </Cells>
    </Piece>
  </UnstructuredGrid>
</VTKFile>
